{
  "$schema": "https://schemas.wp.org/trunk/block.json",
  "apiVersion": 2,
  "name": "rm-gutenberg-landingpage-builder/polar-area",
  "title": "Polar Area Chart",
  "description": "Polar Area Chart Block, supports only single dataset",
  "category": "charts",
  "attributes": {
    "title": {
      "type": "string",
      "default": "Highest selling items in a grocery store"
    },
    "internal_log": {
      "type": "string",
      "default": ""
    },
    "labelType": {
      "type": "string",
      "default": "Language"
    },
    "labels": {
      "type": "array",
      "default": ["Fruits", "Vegetables", "Beverages", "Dairy"]
    },
    "chartType": {
      "type": "string",
      "default": "polarArea"
    },
    "datasets": {
      "type": "array",
      "default": [
        {
          "label": "Dataset 1",
          "data": [1200, 800, 420, 650]
        }
      ]
    },
    "chartID": {
      "type": "string",
      "default": null
    },
    "barAxes": {
      "type": "string",
      "default": "x"
    },
    "sameColor": {
      "type": "boolean",
      "default": false
    },
    "datasetColors": {
      "type": "array",
      "default": []
    }
  },
  "supports": {
    "align": ["wide", "full"],
    "html": false
  }
}
