{
  "$schema": "https://schemas.wp.org/trunk/block.json",
  "apiVersion": 2,
  "name": "rm-gutenberg-landingpage-builder/line",
  "title": "Line Chart",
  "description": "A simple line chart block.",
  "category": "charts",
  "attributes": {
    "title": {
      "type": "string",
      "default": "Sample Data"
    },
    "internal_log": {
      "type": "string",
      "default": ""
    },
    "labels": {
      "type": "array",
      "default": ["January", "February", "March"]
    },
    "chartType": {
      "type": "string",
      "default": "line"
    },
    "datasets": {
      "type": "array",
      "default": [
        {
          "label": "Dataset 1",
          "data": [100, 200, 150, 450],
          "backgroundColor": "#ff6385",
          "borderColor": "#ff6385"
        },
        {
          "label": "Dataset 2",
          "data": [80, 120, 200],
          "backgroundColor": "#36a3eb",
          "borderColor": "#36a3eb"
        }
      ]
    },
    "textColor": {
      "type": "string",
      "default": "#000000"
    },
    "chartID": {
      "type": "string",
      "default": null
    },
    "sameColor": {
      "type": "boolean",
      "default": false
    },
    "datasetColors": {
      "type": "array",
      "default": []
    }
  },
  "supports": {
    "align": ["wide", "full"],
    "html": false
  }
}
